{
    "model": "Category",
    "columns": [
        "slug",
        "title"
    ],
    "data": {
        "1": [
            "notes",
            "Notes"
        ],
        "2": [
            "php",
            "PHP"
        ],
        "3": [
            "rust",
            "Rust"
        ]
    }
}