{
    "model": "Page",
    "columns": [
        "slug",
        "title",
        "content",
        "category"
    ],
    "data": {
        "1": [
            "testing-notes",
            "Testing Notes",
            "<h1>HELLO THERE</h1><p>This is testing content for notes.</p>",
            1
        ],
        "2": [
            "php-class",
            "PHP Class",
            "<pre><code><?php echo 'Hello World!;</code></pre><p>Cool Code</p>",
            2
        ],
        "3": [
            "rust-test",
            "Rust Test",
            "<pre><code>use std::time::{Instant};\r\nconst CAPACITY : usize = 240;\r\nconst IN_LOOPS : usize = 500000;\r\n\r\nfn main() {\r\n    let mut arr = [0; CAPACITY];\r\n    for i in 0..CAPACITY {\r\n        arr[i] = i;\r\n    }\r\n    let mut sum = 0;\r\n    let now = Instant::now();\r\n    for _ in 0..IN_LOOPS {\r\n        let mut s = 0;\r\n        for i in 0..arr.len() {\r\n            s += arr[i];\r\n        }\r\n        sum += s;\r\n    }\r\n    println!(\"sum:{} time:{:?}\", sum, now.elapsed());\r\n\r\n}\r\n</code></pre>",
            3
        ]
    }
}